{
  "name": "Awful Astronomical Appellations",
  "author": "Ithirahad",
  "description": "AAA: Deeper-level name generation for better diversity. Also custom admin naming!",
  "version": "1.35 - Protostar",
  "starmade_version": "0.202.119",
  "client_mod": false,
  "server_mod": false,
  "main_class": "BetterSystemNames.Main",
  "smd_resource_id": 8157,
  "dependencies": [
    -1
  ],
  "core_mod": false,
  "requires_class_resize": false
}
